{
  "$schema": "http://json-schema.org/draft-04/schema#",
  "type": "object",
  "properties": {
    "imagePullPolicy": {
      "type": "string",
      "enum": ["Always", "IfNotPresent", "Never"],
      "default": "IfNotPresent",
      "title": "Image pull policy"
    },  
    "agentName": {
      "type": "string",
      "title": "Agent Name"
    }, 
    "apiKey": {
      "type": "string",
      "title": "Api Key"
    },
    "assistantId": {
      "type": "string",
      "title": "Assistant ID"
    },
    "gateway": {
      "type": "string",
      "enum": ["gateway-fra"],
      "default": "gateway-fra",
      "title": "Watson gateway"
    },
    "nats_host": {
      "type": "string",
      "title": "Nats Host"
    }
  },
    "required": ["gateway", "assistantId", "apiKey", "imagePullPolicy", "agentName", "elasticHost", "nats_host"]
}